{
    "$schema": "http://json-schema.org/draft-07/schema#",
    "type": "object",
    "properties": {
      "hdaGraph": {
        "type": "object",
        "properties": {
          "imVersion": { "type": "string" },
          "id": { "type": "string" },
          "version": { "type": "string" },
          "designer": { "type": "string" },
          "description": { "type": "string" },
          "services": {
            "type": "array",
            "items": {
              "type": "object",
              "properties": {
                "id": { "type": "string" },
                "deployment": {
                  "type": "object",
                  "properties": {
                    "order": { "type": "integer" }
                  },
                  "required": ["order"]
                },
                "artifact": {
                  "type": "object",
                  "properties": {
                    "ref": { "type": "string" },
                    "spec": {
                      "type": "object",
                      "properties": {
                        "type": { "type": "string" },
                        "implementer": { "type": "string" },
                        "version": { "type": "string" }
                      },
                      "required": ["type", "implementer", "version"]
                    },
                    "valuesOverwrite": { "type": "string" }
                  },
                  "required": ["ref", "spec", "valuesOverwrite"]
                }
              },
              "required": ["id", "deployment", "artifact"]
            }
          }
        },
        "required": ["imVersion", "id", "version", "designer", "description", "services"]
      }
    },
    "required": ["hdaGraph"]
  }
