{
    "config": {
        "mediaType": "application/vnd.etsi.nfv.config.v1+json",
        "content": {
            "schemaVersion": "1",
            "mediaType": "application/vnd.etsi.nfv.config.v1+json",
            "packageSpec": "SOL004",
            "dataModelSpec": "SOL006",
            "descriptorFile": "unique-id-knf/descriptor.yaml",
            "descriptorType": "VNF",
            "descriptorId": "unique-id-knf",
            "descriptorVersion": "0.1.0",
            "dependencies": [
                {
                    "descriptorType": "HELM",
                    "descriptorId": "https://xnfr.com/demo-chart:1.0.0",
                    "location": "external",
                    "mode": "soft"
                }
            ]
        }
    },
    "image": {
        "mediaType": "application/vnd.oci.image.manifest.v1+json",
        "content": {
            "schemaVersion": 2,
            "mediaType": "application/vnd.oci.image.manifest.v1+json",
            "config": {
                "mediaType": "application/vnd.etsi.nfv.config.v1+json",
                "digest": "sha256:343923a4a3cbf7b35e99bfbc815df55a833b95d257d8d7ffa89ecd86418f56a0",
                "size": 440
            },
            "layers": [
                {
                    "mediaType": "application/tar+gz",
                    "digest": "sha256:fff6f8199a76adee290b8f87bb6b249e886c1aba89643ed383f9b58760dee97c",
                    "size": 320,
                    "annotations": {
                        "org.opencontainers.image.title": "unique-id-knf-0.1.0.tar.gz"
                    }
                }
            ],
            "annotations": {
                "org.opencontainers.image.authors": "ATOS",
                "org.opencontainers.image.created": "2024-01-24T13:02:19Z",
                "org.opencontainers.image.description": "My demo KNF autogenerated",
                "org.opencontainers.image.title": "unique-id-knf",
                "org.opencontainers.image.version": "0.1.0"
            }
        }
    }
}