module github.gsissc.myatos.net/GLB-BDS-ETSN-SECURITY/xNF-RV-NEPHELE-HDAR/hdar

go 1.19

replace github.gsissc.myatos.net/GLB-BDS-ETSN-SECURITY/xNF-RV-NEPHELE-HDAR/hdar => ./

replace github.gsissc.myatos.net/GLB-BDS-ETSN-SECURITY/xNF-Registry-Verification/xnfrv => ./xNF-Registry-Verification/xnfrv

replace github.gsissc.myatos.net/GLB-BDS-ETSN-SECURITY/xNF-Registry-Verification/common => ./xNF-Registry-Verification/common

require (
	github.com/gorilla/mux v1.8.0
	github.com/spf13/cobra v1.7.0
	github.com/swaggo/http-swagger v1.3.4
	github.com/swaggo/swag v1.16.2
	github.gsissc.myatos.net/GLB-BDS-ETSN-SECURITY/xNF-Registry-Verification/common v0.0.0-00010101000000-000000000000
	github.gsissc.myatos.net/GLB-BDS-ETSN-SECURITY/xNF-Registry-Verification/xnfrv v0.0.0-00010101000000-000000000000
	golang.org/x/exp v0.0.0-20231110203233-9a3e6036ecaa
	helm.sh/helm/v3 v3.13.1
)

require (
	github.com/BurntSushi/toml v1.3.2 // indirect
	github.com/KyleBanks/depth v1.2.1 // indirect
	github.com/Masterminds/goutils v1.1.1 // indirect
	github.com/Masterminds/semver/v3 v3.2.1 // indirect
	github.com/Masterminds/sprig/v3 v3.2.3 // indirect
	github.com/asaskevich/govalidator v0.0.0-20200428143746-21a406dcc535 // indirect
	github.com/cyphar/filepath-securejoin v0.2.4 // indirect
	github.com/davecgh/go-spew v1.1.1 // indirect
	github.com/emicklei/go-restful/v3 v3.10.1 // indirect
	github.com/go-logr/logr v1.2.4 // indirect
	github.com/go-openapi/jsonpointer v0.19.6 // indirect
	github.com/go-openapi/jsonreference v0.20.2 // indirect
	github.com/go-openapi/spec v0.20.6 // indirect
	github.com/go-openapi/swag v0.22.3 // indirect
	github.com/gobwas/glob v0.2.3 // indirect
	github.com/gogo/protobuf v1.3.2 // indirect
	github.com/golang/protobuf v1.5.3 // indirect
	github.com/google/gnostic-models v0.6.8 // indirect
	github.com/google/go-cmp v0.5.9 // indirect
	github.com/google/gofuzz v1.2.0 // indirect
	github.com/google/uuid v1.3.0 // indirect
	github.com/huandu/xstrings v1.4.0 // indirect
	github.com/imdario/mergo v0.3.13 // indirect
	github.com/inconshreveable/mousetrap v1.1.0 // indirect
	github.com/joho/godotenv v1.5.1 // indirect
	github.com/josharian/intern v1.0.0 // indirect
	github.com/json-iterator/go v1.1.12 // indirect
	github.com/mailru/easyjson v0.7.7 // indirect
	github.com/mitchellh/copystructure v1.2.0 // indirect
	github.com/mitchellh/reflectwalk v1.0.2 // indirect
	github.com/modern-go/concurrent v0.0.0-20180306012644-bacd9c7ef1dd // indirect
	github.com/modern-go/reflect2 v1.0.2 // indirect
	github.com/munnerz/goautoneg v0.0.0-20191010083416-a7dc8b61c822 // indirect
	github.com/op/go-logging v0.0.0-20160315200505-970db520ece7 // indirect
	github.com/opencontainers/go-digest v1.0.0 // indirect
	github.com/opencontainers/image-spec v1.1.0-rc5 // indirect
	github.com/oras-project/oras-credentials-go v0.3.0 // indirect
	github.com/pkg/errors v0.9.1 // indirect
	github.com/shopspring/decimal v1.3.1 // indirect
	github.com/spf13/cast v1.5.0 // indirect
	github.com/spf13/pflag v1.0.5 // indirect
	github.com/swaggo/files v0.0.0-20220610200504-28940afbdbfe // indirect
	github.com/xeipuuv/gojsonpointer v0.0.0-20190905194746-02993c407bfb // indirect
	github.com/xeipuuv/gojsonreference v0.0.0-20180127040603-bd5ef7bd5415 // indirect
	github.com/xeipuuv/gojsonschema v1.2.0 // indirect
	gitlab.com/metakeule/scaffold v1.7.2 // indirect
	golang.org/x/crypto v0.15.0 // indirect
	golang.org/x/net v0.18.0 // indirect
	golang.org/x/oauth2 v0.8.0 // indirect
	golang.org/x/sync v0.5.0 // indirect
	golang.org/x/sys v0.14.0 // indirect
	golang.org/x/term v0.14.0 // indirect
	golang.org/x/text v0.14.0 // indirect
	golang.org/x/time v0.3.0 // indirect
	golang.org/x/tools v0.15.0 // indirect
	google.golang.org/appengine v1.6.7 // indirect
	google.golang.org/protobuf v1.30.0 // indirect
	gopkg.in/inf.v0 v0.9.1 // indirect
	gopkg.in/yaml.v2 v2.4.0 // indirect
	gopkg.in/yaml.v3 v3.0.1 // indirect
	k8s.io/api v0.28.2 // indirect
	k8s.io/apiextensions-apiserver v0.28.2 // indirect
	k8s.io/apimachinery v0.28.2 // indirect
	k8s.io/apiserver v0.28.2 // indirect
	k8s.io/client-go v0.28.2 // indirect
	k8s.io/klog/v2 v2.100.1 // indirect
	k8s.io/kube-openapi v0.0.0-20230717233707-2695361300d9 // indirect
	k8s.io/utils v0.0.0-20230406110748-d93618cff8a2 // indirect
	oras.land/oras-go/v2 v2.3.0 // indirect
	sigs.k8s.io/json v0.0.0-20221116044647-bc3834ca7abd // indirect
	sigs.k8s.io/structured-merge-diff/v4 v4.2.3 // indirect
	sigs.k8s.io/yaml v1.3.0 // indirect
)
