{
    "swagger": "2.0",
    "info": {
        "description": "Entrypoint to programatically interact with the HDAR",
        "title": "Hyper Distributed Applications Registry Manager",
        "termsOfService": "http://swagger.io/terms/",
        "contact": {
            "name": "Guillermo Gomez",
            "url": "https://github.gsissc.myatos.net/GLB-BDS-ETSN-SECURITY/xNF-RV-NEPHELE-HDAR/",
            "email": "guillermo.gomezchavez@eviden.net"
        },
        "license": {
            "name": "Eviden (ATOS business) 2023"
        },
        "version": "1.0"
    },
    "basePath": "/hdarapi",
    "paths": {
        "/catalogue": {
            "get": {
                "description": "Complete set of artifacts and types",
                "produces": [
                    "application/json"
                ],
                "tags": [
                    "catalogue"
                ],
                "summary": "Internal catalogue",
                "responses": {
                    "200": {
                        "description": "OK"
                    }
                }
            }
        },
        "/health": {
            "get": {
                "description": "Provides start checks for K8s",
                "produces": [
                    "text/plain"
                ],
                "tags": [
                    "internal"
                ],
                "summary": "Health check of the service",
                "responses": {
                    "200": {
                        "description": "OK"
                    }
                }
            }
        }
    },
    "tags": [
        {
            "name": "catalogue"
        },
        {
            "name": "internal"
        }
    ]
}